1 + + + + + + + + + + 1 
1 + T 1 T T T T 1 T + 1 
1 + # + + 1 1 + + # + 1 
+ + 1 1 1 1 1 1 1 1 + + 
+ T 1 1 + 1 1 + 1 1 T + 
+ 1 1 1 1 + + 1 1 1 1 + 
+ + 1 1 1 1 1 1 1 1 + + 
1 + 1 # # # # # # 1 + 1 
1 + 1 1 1 o 1 1 1 1 + 1 
1 + + + + + + + + + + 1 
